{
  "project_info": {
    "project_number": "494058809772",
    "firebase_url": "https://global-alliance-prayer.firebaseio.com",
    "project_id": "global-alliance-prayer",
    "storage_bucket": "global-alliance-prayer.appspot.com"
  },
  "client": [
    {
      "client_info": {
        "mobilesdk_app_id": "1:494058809772:android:0a40e89db4da4910",
        "android_client_info": {
          "package_name": "com.btjcenter.pray4m"
        }
      },
      "oauth_client": [
        {
          "client_id": "494058809772-q7v07qv7bqs7f9e9qrdtv9kejkv76m8n.apps.googleusercontent.com",
          "client_type": 3
        }
      ],
      "api_key": [
        {
          "current_key": "AIzaSyC3uX5hrmia3dy9bJIknedC-DXacANYfnQ"
        }
      ],
      "services": {
        "analytics_service": {
          "status": 1
        },
        "appinvite_service": {
          "status": 1,
          "other_platform_oauth_client": []
        },
        "ads_service": {
          "status": 2
        }
      }
    }
  ],
  "configuration_version": "1"
}